Visualisiing the 1970's US Vietnam War Draft | Deltanomics
…
## ✔ ggplot2 3.2.1.9000     ✔ purrr   0.3.2     
## ✔ tibble  2.1.3          ✔ dplyr   0.8.1     
## ✔ tidyr   0.8.3          ✔ stringr 1.4.0     
## ✔ readr   1.3.1          ✔ forcats 0.4.0

## ── Conflicts ────────── tidyverse_conflicts() ──
## ✖ dplyr::filter() masks stats::filter()
## ✖ dplyr::lag()    masks stats::lag()

load('/Users/emeador/Downloads/final.RData')

as_tibble(x)

## # A tibble: 50,055 x 964
##    Version VCF0004 VCF0006 VCF0006a VCF0009 VCF0009a VCF0010 VCF0010a
##    <I<chr>   <dbl>   <int>    <int>   <dbl>    <dbl>   <dbl>    <dbl>
##  1 ANES_c…    1948    1001 19481001       1        1       1        1
##  2 ANES_c…    1948    1002 19481002       1        1       1        1
##  3 ANES_c…    1948    1003 19481003       1        1       1        1
##  4 ANES_c…    1948    1004 19481004       1        1       1        1
##  5 ANES_c…    1948    1005 19481005       1        1       1        1
##  6 ANES_c…    1948    1006 19481006       1        1       1        1
##  7 ANES_c…    1948    1007 19481007       1        1       1        1
##  8 ANES_c…    1948    1008 19481008       1        1       1        1
##  9 ANES_c…    1948    1009 19481009       1        1       1        1
## 10 ANES_c…    1948    1010 19481010       1        1       1        1
## # … with 50,045 more rows, and 956 more variables: VCF0011 <dbl>,
## #   VCF0011a <dbl>, VCF0012 <int>, VCF0012a <int>, VCF0012b <int>,
## #   VCF0013 <fct>, VCF0014 <fct>, VCF0015a <ord>, VCF0015b <ord>,
## #   VCF0016 <fct>, VCF0017 <ord>, VCF0018a <ord>, VCF0018b <ord>,
## #   VCF0019 <ord>, VCF0050a <ord>, VCF0050b <ord>, VCF0070a <ord>,
## #   VCF0070b <ord>, VCF0071a <ord>, VCF0071b <ord>, VCF0071c <ord>,
## #   VCF0071d <ord>, VCF0072a <ord>, VCF0072b <ord>, VCF0101 <dbl>,
## #   VCF0102 <ord>, VCF0103 <ord>, VCF0104 <ord>, VCF0105 <ord>,
## #   VCF0106 <ord>, VCF0106a <ord>, VCF0107 <ord>, VCF0108 <ord>,
…
